Suite/Test/Step Name,Browser,Description,Tag,Start time,End time,Duration,Status
TestCaseLogin,Chrome 106.0.0.0,,,2022-10-07 23:40:19,2022-10-07 23:41:15,55.979s,PASSED
,,,,,,,
Test Cases/Login/TC_LOGIN_001,Chrome 106.0.0.0,,,2022-10-07 23:40:20,2022-10-07 23:40:36,16.243s,PASSED
"openBrowser("""")",Chrome 106.0.0.0,,,2022-10-07 23:40:21,2022-10-07 23:40:27,5.616s,PASSED
"navigateToUrl(""https://katalon-demo-cura.herokuapp.com/profile.php#login"")",Chrome 106.0.0.0,,,2022-10-07 23:40:27,2022-10-07 23:40:30,3.697s,PASSED
"setText(findTestObject(""Object Repository/Page_CURA Healthcare Service/input_Username_username""), ""John Doe"")",Chrome 106.0.0.0,,,2022-10-07 23:40:30,2022-10-07 23:40:32,1.282s,PASSED
"setEncryptedText(findTestObject(""Object Repository/Page_CURA Healthcare Service/input_Password_password""), ""g3/DOGG74jC3Flrr3yH+3D/yKbOqqUNM"")",Chrome 106.0.0.0,,,2022-10-07 23:40:32,2022-10-07 23:40:33,0.950s,PASSED
"click(findTestObject(""Object Repository/Page_CURA Healthcare Service/button_Login""))",Chrome 106.0.0.0,,,2022-10-07 23:40:33,2022-10-07 23:40:34,1.384s,PASSED
"verifyElementPresent(findTestObject(""Page_CURA Healthcare Service/h2_Make Appointment""), 10)",Chrome 106.0.0.0,,,2022-10-07 23:40:34,2022-10-07 23:40:35,0.575s,PASSED
closeBrowser(),Chrome 106.0.0.0,,,2022-10-07 23:40:35,2022-10-07 23:40:36,1.679s,PASSED
,,,,,,,
Test Cases/Login/TC_LOGIN_002,Chrome 106.0.0.0,,,2022-10-07 23:40:36,2022-10-07 23:40:49,13.131s,PASSED
"openBrowser("""")",Chrome 106.0.0.0,,,2022-10-07 23:40:37,2022-10-07 23:40:39,2.059s,PASSED
"navigateToUrl(""https://katalon-demo-cura.herokuapp.com/profile.php#login"")",Chrome 106.0.0.0,,,2022-10-07 23:40:39,2022-10-07 23:40:43,3.824s,PASSED
"setText(findTestObject(""Page_CURA Healthcare Service/input_Username_username""), ""Username Salah"")",Chrome 106.0.0.0,,,2022-10-07 23:40:43,2022-10-07 23:40:44,1.043s,PASSED
"setText(findTestObject(""Page_CURA Healthcare Service/input_Password_password""), ""ThisIsNotAPassword"")",Chrome 106.0.0.0,,,2022-10-07 23:40:44,2022-10-07 23:40:45,1.131s,PASSED
"click(findTestObject(""Page_CURA Healthcare Service/button_Login""))",Chrome 106.0.0.0,,,2022-10-07 23:40:45,2022-10-07 23:40:47,1.438s,PASSED
"verifyElementPresent(findTestObject(""Page_CURA Healthcare Service/p_Login failed Please ensure the username and password are valid""), 10)",Chrome 106.0.0.0,,,2022-10-07 23:40:47,2022-10-07 23:40:47,0.635s,PASSED
closeBrowser(),Chrome 106.0.0.0,,,2022-10-07 23:40:47,2022-10-07 23:40:49,1.905s,PASSED
,,,,,,,
Test Cases/Login/TC_LOGIN_003,Chrome 106.0.0.0,,,2022-10-07 23:40:49,2022-10-07 23:41:02,13.120s,PASSED
"openBrowser("""")",Chrome 106.0.0.0,,,2022-10-07 23:40:50,2022-10-07 23:40:53,2.100s,PASSED
"navigateToUrl(""https://katalon-demo-cura.herokuapp.com/profile.php#login"")",Chrome 106.0.0.0,,,2022-10-07 23:40:53,2022-10-07 23:40:57,3.923s,PASSED
"setText(findTestObject(""Page_CURA Healthcare Service/input_Username_username""), ""John Doe"")",Chrome 106.0.0.0,,,2022-10-07 23:40:57,2022-10-07 23:40:58,1.104s,PASSED
"setText(findTestObject(""Page_CURA Healthcare Service/input_Password_password""), ""passwordSalah"")",Chrome 106.0.0.0,,,2022-10-07 23:40:58,2022-10-07 23:40:59,1.212s,PASSED
"click(findTestObject(""Page_CURA Healthcare Service/button_Login""))",Chrome 106.0.0.0,,,2022-10-07 23:40:59,2022-10-07 23:41:00,1.586s,PASSED
"verifyElementPresent(findTestObject(""Page_CURA Healthcare Service/p_Login failed Please ensure the username and password are valid""), 10)",Chrome 106.0.0.0,,,2022-10-07 23:41:00,2022-10-07 23:41:01,0.458s,PASSED
closeBrowser(),Chrome 106.0.0.0,,,2022-10-07 23:41:01,2022-10-07 23:41:02,1.610s,PASSED
,,,,,,,
Test Cases/Login/TC_LOGIN_004,Chrome 106.0.0.0,,,2022-10-07 23:41:02,2022-10-07 23:41:15,12.737s,PASSED
"openBrowser("""")",Chrome 106.0.0.0,,,2022-10-07 23:41:04,2022-10-07 23:41:06,2.041s,PASSED
"navigateToUrl(""https://katalon-demo-cura.herokuapp.com/profile.php#login"")",Chrome 106.0.0.0,,,2022-10-07 23:41:06,2022-10-07 23:41:09,3.757s,PASSED
"setText(findTestObject(""Page_CURA Healthcare Service/input_Username_username""), ""Username Salah"")",Chrome 106.0.0.0,,,2022-10-07 23:41:09,2022-10-07 23:41:10,1.005s,PASSED
"setText(findTestObject(""Page_CURA Healthcare Service/input_Password_password""), ""passwordSalah"")",Chrome 106.0.0.0,,,2022-10-07 23:41:10,2022-10-07 23:41:12,1.026s,PASSED
"click(findTestObject(""Page_CURA Healthcare Service/button_Login""))",Chrome 106.0.0.0,,,2022-10-07 23:41:12,2022-10-07 23:41:13,1.509s,PASSED
"verifyElementPresent(findTestObject(""Page_CURA Healthcare Service/p_Login failed Please ensure the username and password are valid""), 10)",Chrome 106.0.0.0,,,2022-10-07 23:41:13,2022-10-07 23:41:14,0.707s,PASSED
closeBrowser(),Chrome 106.0.0.0,,,2022-10-07 23:41:14,2022-10-07 23:41:15,1.508s,PASSED
